{
	"extName": {
		"message": "Contacte (CardBook)",
		"description": "Name of the extension - do NOT translate"
	},
	
	"extDesc": {
		"message": "Carte de adrese vCard",
		"description": "Description of the extension - do NOT translate"
	},
	
	"browserActionTitle": {
		"message": "CardBook",
		"description": "Deschide/Treci la fila CardBook"
	}
}
