{
	"extName": {
		"message": "Kontaktai (CardBook)",
		"description": "Name of the extension - do NOT translate"
	},
	
	"extDesc": {
		"message": "„vCard“ adresų knyga",
		"description": "Description of the extension - do NOT translate"
	},
	
	"browserActionTitle": {
		"message": "Kontaktai",
		"description": "Pereiti prieKontaktų kortelės"
	}
}
