{
	"extName": {
		"message": "Контакти «CardBook»",
		"description": "Name of the extension - do NOT translate"
	},
	
	"extDesc": {
		"message": "Адресна книга особиста картка «vCard»",
		"description": "Description of the extension - do NOT translate"
	},
	
	"browserActionTitle": {
		"message": "Контакти",
		"description": "Перемикатись на Контакти вкладку"
	}
}
