{
	"extName": {
		"message": "Danh bạ (CardBook)",
		"description": "Name of the extension - do NOT translate"
	},
	
	"extDesc": {
		"message": "Sổ Địa Chỉ Thẻ Ảo (vCard)",
		"description": "Description of the extension - do NOT translate"
	},
	
	"browserActionTitle": {
		"message": "Danh bạ",
		"description": "Chuyển sang Thẻ Danh bạ"
	}
}
