{
	"extName": {
		"message": "CardBook",
		"description": "Name of the extension - do NOT translate"
	},
	
	"extDesc": {
		"message": "Rubrica vCard",
		"description": "Description of the extension - do NOT translate"
	},
	
	"browserActionTitle": {
		"message": "CardBook",
		"description": "Vai a CardBook"
	}
}
