{
	"extName": {
		"message": "Επαφές (CardBook)",
		"description": "Name of the extension - do NOT translate"
	},
	
	"extDesc": {
		"message": "Βιβλίο διευθύνσεων εικονική κάρτα (vCard)",
		"description": "Description of the extension - do NOT translate"
	},
	
	"browserActionTitle": {
		"message": "Επαφές",
		"description": "Μεταβείτε στην καρτέλα Επαφές"
	}
}
