{
	"extName": {
		"message": "연락처(CardBook)",
		"description": "Name of the extension - do NOT translate"
	},
	
	"extDesc": {
		"message": "가상 카드(vCard) 주소록",
		"description": "Description of the extension - do NOT translate"
	},
	
	"browserActionTitle": {
		"message": "연락처",
		"description": "연락처 탭으로 전환하십시오"
	}
}
